verilog/tb/lfsr.vcd
$date
	Sun Nov  2 19:05:42 2025
$end
$version
	Icarus Verilog
$end
$timescale
	1ns
$end
$scope module tb_lfsr $end
$var wire 1 ! noise $end
$var reg 1 " clk_i $end
$var reg 1 # en_step_i $end
$var reg 1 $ rst_i $end
$scope module uut $end
$var wire 1 " clk $end
$var wire 1 # en_step $end
$var wire 1 $ rst $end
$var reg 1 % feedback $end
$var reg 1 ! noise_out $end
$var reg 16 & noise_reg [15:0] $end
$upscope $end
$upscope $end
$enddefinitions $end
$comment Show the parameter values. $end
$dumpall
$end
#0
$dumpvars
b1010110011100001 &
0%
0$
1#
0"
0!
$end
#1000
1!
b101100111000010 &
1"
#2000
0"
#3000
0!
b1011001110000100 &
1%
1"
#4000
0"
#5000
b110011100001001 &
0%
1"
#6000
0"
#7000
1!
b1100111000010010 &
1"
#8000
0"
#9000
0!
b1001110000100100 &
1"
#10000
0"
#11000
b11100001001000 &
1%
1"
#12000
0"
#13000
b111000010010001 &
0%
1"
#14000
0"
#15000
1!
b1110000100100010 &
1%
1"
#16000
0"
#17000
0!
b1100001001000101 &
0%
1"
#18000
0"
#19000
1!
b1000010010001010 &
1%
1"
#20000
0"
#21000
0!
b100100010101 &
1"
#22000
0"
#23000
1!
b1001000101011 &
0%
1"
#24000
0"
#25000
b10010001010110 &
1%
1"
#26000
0"
#27000
0!
b100100010101101 &
1"
#28000
0"
#29000
1!
b1001000101011011 &
1"
#30000
0"
#31000
b10001010110111 &
0%
1"
#32000
0"
#33000
b100010101101110 &
1%
1"
#34000
0"
#35000
0!
b1000101011011101 &
1"
#36000
0"
#37000
1!
b1010110111011 &
0%
1"
#38000
0"
#39000
b10101101110110 &
1"
#40000
0"
#41000
0!
b101011011101100 &
1%
1"
#42000
0"
#43000
b1010110111011001 &
1"
#44000
0"
#45000
1!
b101101110110011 &
1"
#46000
0"
#47000
b1011011101100111 &
0%
1"
#48000
0"
#49000
b110111011001110 &
1"
#50000
0"
#51000
0!
b1101110110011100 &
1"
#52000
0"
#53000
b1011101100111000 &
1"
#54000
0"
#55000
b111011001110000 &
1%
1"
#56000
0"
#57000
b1110110011100001 &
1"
#58000
0"
#59000
1!
b1101100111000011 &
0%
1"
#60000
0"
#61000
b1011001110000110 &
1%
1"
#62000
0"
#63000
0!
b110011100001101 &
0%
1"
#64000
0"
#65000
1!
b1100111000011010 &
1"
#66000
0"
#67000
0!
b1001110000110100 &
1"
#68000
0"
#69000
b11100001101000 &
1"
#70000
0"
#71000
b111000011010000 &
1"
#72000
0"
#73000
b1110000110100000 &
1%
1"
#74000
0"
#75000
b1100001101000001 &
0%
1"
#76000
0"
#77000
1!
b1000011010000010 &
1%
1"
#78000
0"
#79000
0!
b110100000101 &
1"
#80000
0"
#81000
1!
b1101000001011 &
1"
#82000
0"
#83000
b11010000010111 &
1"
#84000
0"
#85000
b110100000101111 &
1"
#86000
0"
#87000
b1101000001011111 &
0%
1"
#88000
0"
#89000
b1010000010111110 &
1"
#90000
0"
#91000
0!
b100000101111100 &
1%
1"
#92000
0"
#93000
b1000001011111001 &
0%
1"
#94000
0"
#95000
1!
b10111110010 &
1"
#96000
0"
#97000
0!
b101111100100 &
1"
#98000
0"
#99000
b1011111001000 &
1%
1"
#100000
0"
#101000
b10111110010001 &
1"
#102000
0"
#103000
1!
b101111100100011 &
1"
#104000
0"
#105000
b1011111001000111 &
1"
#106000
0"
#107000
b111110010001111 &
0%
1"
#108000
0"
#109000
b1111100100011110 &
1"
#110000
0"
#111000
0!
b1111001000111100 &
1%
1"
#112000
0"
#113000
b1110010001111001 &
1"
#114000
0"
#115000
1!
b1100100011110011 &
1"
#116000
0"
#117000
b1001000111100111 &
0%
1"
#118000
0"
#119000
b10001111001110 &
1%
1"
#120000
0"
#121000
0!
b100011110011101 &
0%
1"
#122000
0"
#123000
1!
b1000111100111010 &
1"
#124000
0"
#125000
0!
b1111001110100 &
1"
#126000
0"
#127000
b11110011101000 &
1"
#128000
0"
#129000
b111100111010000 &
1"
#130000
0"
#131000
b1111001110100000 &
1%
1"
#132000
0"
#133000
b1110011101000001 &
0%
1"
#134000
0"
#135000
1!
b1100111010000010 &
1"
#136000
0"
#137000
0!
b1001110100000100 &
1%
1"
#138000
0"
#139000
b11101000001001 &
1"
#140000
0"
#141000
1!
b111010000010011 &
0%
1"
#142000
0"
#143000
b1110100000100110 &
1%
1"
#144000
0"
#145000
0!
b1101000001001101 &
0%
1"
#146000
0"
#147000
1!
b1010000010011010 &
1%
1"
#148000
0"
#149000
0!
b100000100110101 &
1"
#150000
0"
#151000
1!
b1000001001101011 &
0%
1"
#152000
0"
#153000
b10011010110 &
1%
1"
#154000
0"
#155000
0!
b100110101101 &
0%
1"
#156000
0"
#157000
1!
b1001101011010 &
1%
1"
#158000
0"
#159000
0!
b10011010110101 &
0%
1"
#160000
0"
#161000
1!
b100110101101010 &
1%
1"
#162000
0"
#163000
0!
b1001101011010101 &
1"
#164000
0"
#165000
1!
b11010110101011 &
0%
1"
#166000
0"
#167000
b110101101010110 &
1"
#168000
0"
#169000
0!
b1101011010101100 &
1%
1"
#170000
0"
#171000
b1010110101011001 &
1"
#172000
0"
#173000
1!
b101101010110011 &
1"
#174000
0"
#175000
b1011010101100111 &
0%
1"
#176000
0"
#177000
b110101011001110 &
1"
#178000
0"
#179000
0!
b1101010110011100 &
1"
#180000
0"
#181000
b1010101100111000 &
1"
#182000
0"
#183000
b101011001110000 &
1%
1"
#184000
0"
#185000
b1010110011100001 &
0%
1"
#186000
0"
#187000
1!
b101100111000010 &
1"
#188000
0"
#189000
0!
b1011001110000100 &
1%
1"
#190000
0"
#191000
b110011100001001 &
0%
1"
#192000
0"
#193000
1!
b1100111000010010 &
1"
#194000
0"
#195000
0!
b1001110000100100 &
1"
#196000
0"
#197000
b11100001001000 &
1%
1"
#198000
0"
#199000
b111000010010001 &
0%
1"
