verilog/tb/tb_tt.vcd
$date
	Thu Nov 13 16:16:45 2025
$end
$version
	Icarus Verilog
$end
$timescale
	1ms
$end
$scope module tb_tt $end
$var wire 8 ! uio_oe [7:0] $end
$var wire 8 " uio_out [7:0] $end
$var wire 8 # uo_out [7:0] $end
$var reg 1 $ clk $end
$var reg 1 % ena $end
$var reg 1 & rst_n $end
$var reg 8 ' ui_in [7:0] $end
$var reg 8 ( uio_in [7:0] $end
$scope module uut $end
$var wire 1 $ clk $end
$var wire 1 % ena $end
$var wire 1 & rst_n $end
$var wire 8 ) ui_in [7:0] $end
$var wire 8 * uio_in [7:0] $end
$var wire 8 + uio_oe [7:0] $end
$var wire 8 , uio_out [7:0] $end
$var wire 8 - uo_out [7:0] $end
$var wire 1 . signal_bit $end
$var wire 7 / debug_bits [6:0] $end
$var wire 1 0 clk_scaled $end
$scope module clk_scaler $end
$var wire 1 $ clk $end
$var wire 1 % en $end
$var wire 1 1 rst $end
$var wire 11 2 scale_factor [10:0] $end
$var reg 1 0 clk_out $end
$var reg 11 3 counter [10:0] $end
$upscope $end
$scope module signal_gen $end
$var wire 3 4 address [2:0] $end
$var wire 1 0 clk $end
$var wire 5 5 data [4:0] $end
$var wire 1 6 rst $end
$var wire 1 7 write_strobe $end
$var wire 1 8 waveB $end
$var wire 1 9 waveA $end
$var wire 4 : vibA [3:0] $end
$var wire 1 ; signal_raw $end
$var wire 1 . signal_out $end
$var wire 1 < noise $end
$var wire 8 = mix_level [7:0] $end
$var wire 4 > envB [3:0] $end
$var wire 4 ? envA [3:0] $end
$var wire 7 @ debug [6:0] $end
$var reg 1 A enableA $end
$var reg 1 B enableB $end
$var reg 1 C enableN $end
$var reg 1 D enableVib $end
$var reg 12 E periodA [11:0] $end
$var reg 12 F periodB [11:0] $end
$var reg 4 G vib_depth [3:0] $end
$var reg 8 H vib_speed [7:0] $end
$var reg 4 I volA [3:0] $end
$var reg 4 J volB [3:0] $end
$var reg 4 K volN [3:0] $end
$scope module envA_gen $end
$var wire 4 L attack_i [3:0] $end
$var wire 1 0 clk_i $end
$var wire 4 M decay_i [3:0] $end
$var wire 1 A enable_i $end
$var wire 4 N release_i [3:0] $end
$var wire 4 O sustain_i [3:0] $end
$var parameter 2 P ATTACK $end
$var parameter 2 Q DECAY $end
$var parameter 2 R IDLE $end
$var parameter 2 S RELEASE $end
$var reg 4 T level_o [3:0] $end
$var reg 2 U state [1:0] $end
$var reg 4 V timer [3:0] $end
$upscope $end
$scope module envB_gen $end
$var wire 4 W attack_i [3:0] $end
$var wire 1 0 clk_i $end
$var wire 4 X decay_i [3:0] $end
$var wire 1 B enable_i $end
$var wire 4 Y release_i [3:0] $end
$var wire 4 Z sustain_i [3:0] $end
$var parameter 2 [ ATTACK $end
$var parameter 2 \ DECAY $end
$var parameter 2 ] IDLE $end
$var parameter 2 ^ RELEASE $end
$var reg 4 _ level_o [3:0] $end
$var reg 2 ` state [1:0] $end
$var reg 4 a timer [3:0] $end
$upscope $end
$scope module mix $end
$var wire 1 0 clk $end
$var wire 1 A enableA $end
$var wire 1 B enableB $end
$var wire 1 C enableNoise $end
$var wire 4 b envA [3:0] $end
$var wire 4 c envB [3:0] $end
$var wire 1 6 rst $end
$var wire 4 d volumeA [3:0] $end
$var wire 4 e volumeB [3:0] $end
$var wire 4 f volumeNoise [3:0] $end
$var wire 1 8 waveB $end
$var wire 1 9 waveA $end
$var wire 1 < noise $end
$var reg 5 g a_val [4:0] $end
$var reg 5 h b_val [4:0] $end
$var reg 8 i mixout [7:0] $end
$var reg 8 j multA [7:0] $end
$var reg 8 k multB [7:0] $end
$var reg 5 l n_val [4:0] $end
$var reg 1 m started $end
$var reg 6 n sum [5:0] $end
$upscope $end
$scope module n $end
$var wire 1 0 clk $end
$var wire 1 C en_step $end
$var wire 1 6 rst $end
$var reg 1 o feedback $end
$var reg 1 < noise_out $end
$var reg 16 p noise_reg [15:0] $end
$upscope $end
$scope module pwm $end
$var wire 1 0 clk $end
$var wire 8 q duty_cycle [7:0] $end
$var wire 1 6 rst $end
$var reg 8 r clk_cnt [7:0] $end
$var reg 1 ; pwm_o $end
$upscope $end
$scope module tA $end
$var wire 1 0 clk $end
$var wire 1 A enable $end
$var wire 12 s period [11:0] $end
$var wire 1 6 rst $end
$var reg 12 t cnt [11:0] $end
$var reg 1 9 wave $end
$upscope $end
$scope module tB $end
$var wire 1 0 clk $end
$var wire 1 B enable $end
$var wire 12 u period [11:0] $end
$var wire 1 6 rst $end
$var reg 12 v cnt [11:0] $end
$var reg 1 8 wave $end
$upscope $end
$scope module vibA_gen $end
$var wire 1 0 clk $end
$var wire 4 w depth [3:0] $end
$var wire 1 D enable $end
$var wire 8 x speed [7:0] $end
$var reg 1 y dir $end
$var reg 8 z div [7:0] $end
$var reg 4 { val [3:0] $end
$var reg 4 | vibrato_o [3:0] $end
$upscope $end
$upscope $end
$upscope $end
$upscope $end
$enddefinitions $end
$comment Show the parameter values. $end
$dumpall
b11 ^
b0 ]
b10 \
b1 [
b11 S
b0 R
b10 Q
b1 P
$end
#50
$dumpvars
bx |
b0 {
b0 z
0y
b110010 x
b100 w
b0 v
b100101100 u
b0 t
bx s
b0 r
bx q
b1010110011100001 p
0o
bx n
0m
bx l
bx k
bx j
bx i
bx h
bx g
b11 f
b1000 e
b1000 d
bx c
bx b
b0 a
b0 `
bx _
b1000 Z
b11 Y
b10 X
b10 W
b0 V
b0 U
bx T
b1000 O
b11 N
b10 M
b10 L
b11 K
b1000 J
b1000 I
b110010 H
b100 G
b100101100 F
b11001000 E
1D
1C
1B
1A
b0 @
bx ?
bx >
bx =
0<
0;
bx :
09
08
07
16
b0 5
b0 4
b0 3
b110010 2
11
00
b0 /
0.
b0 -
b0 ,
b111 +
b0 *
b0 )
b0 (
b0 '
0&
0%
1$
b0 #
b0 "
b111 !
$end
#51
0$
#52
1$
#53
0$
#54
1$
#55
01
06
0$
1&
#56
1$
#57
0$
#58
1$
#59
0$
#60
1$
#61
0$
#62
1$
#63
0$
#64
1$
#65
0$
1%
#66
b1 3
1$
#67
0$
#68
b10 3
1$
#69
0$
#70
b11 3
1$
#71
0$
#72
b100 3
1$
#73
0$
#74
b101 3
1$
#75
0$
#76
b110 3
1$
#77
0$
#78
b111 3
1$
#79
0$
#80
b1000 3
1$
#81
0$
#82
b1001 3
1$
#83
0$
#84
b1010 3
1$
#85
0$
#86
b1011 3
1$
#87
0$
#88
b1100 3
1$
#89
0$
#90
b1101 3
1$
#91
0$
#92
b1110 3
1$
#93
0$
#94
b1111 3
1$
#95
0$
#96
b10000 3
1$
#97
0$
#98
b10001 3
1$
#99
0$
#100
b10010 3
1$
#101
0$
#102
b10011 3
1$
#103
0$
#104
b10100 3
1$
#105
0$
#106
b10101 3
1$
#107
0$
#108
b10110 3
1$
#109
0$
#110
b10111 3
1$
#111
0$
#112
b11000 3
1$
#113
0$
#114
b11001 3
1$
#115
17
0$
b1 '
b1 )
#116
b11010 3
1$
#117
0$
#118
b11011 3
1$
#119
0$
#120
b11100 3
1$
#121
0$
#122
b11101 3
1$
#123
0$
#124
b11110 3
1$
#125
0$
#126
b11111 3
1$
#127
0$
#128
b100000 3
1$
#129
0$
#130
b100001 3
1$
#131
0$
#132
b100010 3
1$
#133
0$
#134
b100011 3
1$
#135
0$
#136
b100100 3
1$
#137
0$
#138
b100101 3
1$
#139
0$
#140
b100110 3
1$
#141
0$
#142
b100111 3
1$
#143
0$
#144
b101000 3
1$
#145
0$
#146
b101001 3
1$
#147
0$
#148
b101010 3
1$
#149
0$
#150
b101011 3
1$
#151
0$
#152
b101100 3
1$
#153
0$
#154
b101101 3
1$
#155
0$
#156
b101110 3
1$
#157
0$
#158
b101111 3
1$
#159
0$
#160
b110000 3
1$
#161
0$
#162
b110001 3
1$
#163
0$
#164
b110010 3
1$
#165
0$
#166
b1 z
b0 ?
b0 T
b0 b
b1 U
b0 >
b0 _
b0 c
b1 `
1<
b101100111000010 p
b0 =
b0 i
b0 q
1m
x;
b1 r
b110000000 E
18
b100101100 v
19
bx t
10
b0 3
1$
#167
0$
#168
b1 3
1$
#169
0$
#170
b10 3
1$
#171
0$
#172
b11 3
1$
#173
0$
#174
b100 3
1$
#175
0$
#176
b101 3
1$
#177
0$
#178
b110 3
1$
#179
0$
#180
b111 3
1$
#181
0$
#182
b1000 3
1$
#183
0$
#184
b1001 3
1$
#185
0$
#186
b1010 3
1$
#187
0$
#188
b1011 3
1$
#189
0$
#190
b1100 3
1$
#191
0$
#192
b1101 3
1$
#193
0$
#194
b1110 3
1$
#195
0$
#196
b1111 3
1$
#197
0$
#198
b10000 3
1$
#199
0$
#200
b10001 3
1$
#201
0$
#202
b10010 3
1$
#203
0$
#204
b10011 3
1$
#205
0$
#206
b10100 3
1$
#207
0$
#208
b10101 3
1$
#209
0$
#210
b10110 3
1$
#211
0$
#212
b10111 3
1$
#213
0$
#214
b11000 3
1$
#215
0$
#216
b11001 3
1$
#217
0$
#218
b11010 3
1$
#219
0$
#220
b11011 3
1$
#221
0$
#222
b11100 3
1$
#223
0$
#224
b11101 3
1$
#225
0$
#226
b11110 3
1$
#227
0$
#228
b11111 3
1$
#229
0$
#230
b100000 3
1$
#231
0$
#232
b100001 3
1$
#233
0$
#234
b100010 3
1$
#235
0$
#236
b100011 3
1$
#237
0$
#238
b100100 3
1$
#239
0$
#240
b100101 3
1$
#241
0$
#242
b100110 3
1$
#243
0$
#244
b100111 3
1$
#245
0$
#246
b101000 3
1$
#247
0$
#248
b101001 3
1$
#249
0$
#250
b101010 3
1$
#251
0$
#252
b101011 3
1$
#253
0$
#254
b101100 3
1$
#255
0$
#256
b101101 3
1$
#257
0$
#258
b101110 3
1$
#259
0$
#260
b101111 3
1$
#261
0$
#262
b110000 3
1$
#263
0$
#264
b110001 3
1$
#265
0$
#266
b110010 3
1$
#267
0$
#268
00
b0 3
1$
#269
0$
#270
b1 3
1$
#271
0$
#272
b10 3
1$
#273
0$
#274
b11 3
1$
#275
0$
#276
b100 3
1$
#277
0$
#278
b101 3
1$
#279
0$
#280
b110 3
1$
#281
0$
#282
b111 3
1$
#283
0$
#284
b1000 3
1$
#285
0$
#286
b1001 3
1$
#287
0$
#288
b1010 3
1$
#289
0$
#290
b1011 3
1$
#291
0$
#292
b1100 3
1$
#293
0$
#294
b1101 3
1$
#295
0$
#296
b1110 3
1$
#297
0$
#298
b1111 3
1$
#299
0$
#300
b10000 3
1$
#301
0$
#302
b10001 3
1$
#303
0$
#304
b10010 3
1$
#305
0$
#306
b10011 3
1$
#307
0$
#308
b10100 3
1$
#309
0$
#310
b10101 3
1$
#311
0$
#312
b10110 3
1$
#313
0$
#314
b10111 3
1$
