verilog/tb/wave.vcd
$date
	Tue Oct 28 21:49:34 2025
$end
$version
	Icarus Verilog
$end
$timescale
	1ns
$end
$scope module tb_tonegen $end
$var wire 1 ! wave $end
$var reg 1 " clk $end
$scope module uut $end
$var wire 1 " clk $end
$var wire 12 # period [11:0] $end
$var reg 12 $ cnt [11:0] $end
$var reg 1 ! wave $end
$upscope $end
$upscope $end
$enddefinitions $end
$comment Show the parameter values. $end
$dumpall
$end
#0
$dumpvars
b0 $
b1010 #
0"
0!
$end
#1000
1!
b1010 $
1"
#2000
0"
#3000
b1001 $
1"
#4000
0"
#5000
b1000 $
1"
#6000
0"
#7000
b111 $
1"
#8000
0"
#9000
b110 $
1"
#10000
0"
#11000
b101 $
1"
#12000
0"
#13000
b100 $
1"
#14000
0"
#15000
b11 $
1"
#16000
0"
#17000
b10 $
1"
#18000
0"
#19000
b1 $
1"
#20000
0"
#21000
b0 $
1"
#22000
0"
#23000
0!
b1010 $
1"
#24000
0"
#25000
b1001 $
1"
#26000
0"
#27000
b1000 $
1"
#28000
0"
#29000
b111 $
1"
#30000
0"
#31000
b110 $
1"
#32000
0"
#33000
b101 $
1"
#34000
0"
#35000
b100 $
1"
#36000
0"
#37000
b11 $
1"
#38000
0"
#39000
b10 $
1"
#40000
0"
#41000
b1 $
1"
#42000
0"
#43000
b0 $
1"
#44000
0"
#45000
1!
b1010 $
1"
#46000
0"
#47000
b1001 $
1"
#48000
0"
#49000
b1000 $
1"
#50000
0"
#51000
b111 $
1"
#52000
0"
#53000
b110 $
1"
#54000
0"
#55000
b101 $
1"
#56000
0"
#57000
b100 $
1"
#58000
0"
#59000
b11 $
1"
#60000
0"
#61000
b10 $
1"
#62000
0"
#63000
b1 $
1"
#64000
0"
#65000
b0 $
1"
#66000
0"
#67000
0!
b1010 $
1"
#68000
0"
#69000
b1001 $
1"
#70000
0"
#71000
b1000 $
1"
#72000
0"
#73000
b111 $
1"
#74000
0"
#75000
b110 $
1"
#76000
0"
#77000
b101 $
1"
#78000
0"
#79000
b100 $
1"
#80000
0"
#81000
b11 $
1"
#82000
0"
#83000
b10 $
1"
#84000
0"
#85000
b1 $
1"
#86000
0"
#87000
b0 $
1"
#88000
0"
#89000
1!
b1010 $
1"
#90000
0"
#91000
b1001 $
1"
#92000
0"
#93000
b1000 $
1"
#94000
0"
#95000
b111 $
1"
#96000
0"
#97000
b110 $
1"
#98000
0"
#99000
b101 $
1"
#100000
0"
#101000
b100 $
1"
#102000
0"
#103000
b11 $
1"
#104000
0"
#105000
b10 $
1"
#106000
0"
#107000
b1 $
1"
#108000
0"
#109000
b0 $
1"
#110000
0"
#111000
0!
b1010 $
1"
#112000
0"
#113000
b1001 $
1"
#114000
0"
#115000
b1000 $
1"
#116000
0"
#117000
b111 $
1"
#118000
0"
#119000
b110 $
1"
#120000
0"
#121000
b101 $
1"
#122000
0"
#123000
b100 $
1"
#124000
0"
#125000
b11 $
1"
#126000
0"
#127000
b10 $
1"
#128000
0"
#129000
b1 $
1"
#130000
0"
#131000
b0 $
1"
#132000
0"
#133000
1!
b1010 $
1"
#134000
0"
#135000
b1001 $
1"
#136000
0"
#137000
b1000 $
1"
#138000
0"
#139000
b111 $
1"
#140000
0"
#141000
b110 $
1"
#142000
0"
#143000
b101 $
1"
#144000
0"
#145000
b100 $
1"
#146000
0"
#147000
b11 $
1"
#148000
0"
#149000
b10 $
1"
#150000
0"
#151000
b1 $
1"
#152000
0"
#153000
b0 $
1"
#154000
0"
#155000
0!
b1010 $
1"
#156000
0"
#157000
b1001 $
1"
#158000
0"
#159000
b1000 $
1"
#160000
0"
#161000
b111 $
1"
#162000
0"
#163000
b110 $
1"
#164000
0"
#165000
b101 $
1"
#166000
0"
#167000
b100 $
1"
#168000
0"
#169000
b11 $
1"
#170000
0"
#171000
b10 $
1"
#172000
0"
#173000
b1 $
1"
#174000
0"
#175000
b0 $
1"
#176000
0"
#177000
1!
b1010 $
1"
#178000
0"
#179000
b1001 $
1"
#180000
0"
#181000
b1000 $
1"
#182000
0"
#183000
b111 $
1"
#184000
0"
#185000
b110 $
1"
#186000
0"
#187000
b101 $
1"
#188000
0"
#189000
b100 $
1"
#190000
0"
#191000
b11 $
1"
#192000
0"
#193000
b10 $
1"
#194000
0"
#195000
b1 $
1"
#196000
0"
#197000
b0 $
1"
#198000
0"
#199000
0!
b1010 $
1"
